[
    {
        "brand":"realme",
        "project":"21675",
        "name":"default",
        "product":"RMX3360",
        "device":"RE54ABL1",
        "model":"RMX3360",
	    "first_api_level":"30",
		"manufacturer":"realme",
        "base_oses": [
            {
              "13": "realme/RMX3360/RE54ABL1:13/TP1A.220905.001/R.c87211_29_12c:user/release-keys"
            }
        ]
    },
	{
        "brand":"realme",
        "project":"21675",
        "name":"tr",
        "product":"RMX3360TR",
        "device":"RE54ABL1",
        "model":"RMX3360",
	    "first_api_level":"30",
		"manufacturer":"realme"
    },
	{
        "brand":"realme",
        "project":"21675",
        "name":"ru",
        "product":"RMX3360RU",
        "device":"RE54ABL1",
        "model":"RMX3360",
	    "first_api_level":"30",
		"manufacturer":"realme"
    },
	{
        "brand":"realme",
        "project":"21675",
        "name":"t2",
        "product":"RMX3360T2",
        "device":"RE54ABL1",
        "model":"RMX3360",
	    "first_api_level":"30",
		"manufacturer":"realme"
    },
	{
        "brand":"realme",
        "project":"21675",
        "name":"eea",
        "product":"RMX3360EEA",
        "device":"RE54ABL1",
        "model":"RMX3360",
	    "first_api_level":"30",
		"manufacturer":"realme"
    }

]
