[
    {
        "filter_name": "oplus_adfr_config"
    },
    {
        "version": 20211106
    },
    {
        "sub_version": "1.0.0"
    },
    {
        "touch_idle": true,
        "hw_enable": true,
        "sw_enable": true,
        "adfr_enable": false,
        "timeout": 3000,
        "hw_brightness_limit": 200,
        "hw_gray": true,
        "hw_gray_threshold": 55,
        "hw_gray_percent": 70,

        "blacklist": [
            "com.android.settings",
            "com.android.mms",
            "com.oplus.engineermode",
            "com.antutu.ABenchMark",
            "com.antutu.benchmark.full",
            "com.ludashi.benchmark2",
            "com.ludashi.benchmark",
            "com.oppo.engineermode",
            "com.coloros.video",
            "com.tencent.tvoem",
            "com.tencent.qqlive",
            "tv.danmaku.bili",
            "tv.acfundanmaku.video",
            "com.youku.phone",
            "com.google.android.youtube",
            "com.tencent.qqsports",
            "com.netflix.mediaclient",
	    "com.tencent.tmgp.speedmobile",
            "com.tencent.af",
            "com.netease.blqx.nearme.gamecenter",
            "com.netease.lztg.nearme.gamecenter",
            "com.pwrd.xxajh.nearme.gamecenter",
            "com.netease.blqx",
            "com.netease.lztg",
            "com.tencent.ig",
            "com.tencent.lolm",
            "com.riotgames.league.wildrift",
            "com.riotgames.internal.wildrift.trunk",
            "com.riotgames.internal.wildrift.test",
            "com.riotgames.league.wildriftvn",
            "com.riotgames.league.wildrifttw",
            "com.tencent.tmgp.sgame",
            "com.tencent.tmgp.cf",
            "com.tencent.tmgp.pubgmhd",
            "com.tencent.tmgp.pubgm",
            "com.pubg.krmobile",
            "com.vng.pubgmobile",
            "com.rekoo.pubgm",
            "com.tencent.tmgp.projectg",
            "com.tencent.igce",
            "com.tencent.tmgp.sgamece",
            "com.tencent.KiHan",
            "com.tencent.tmgp.KiHan",
            "com.netease.yokaikoya",
            "com.miHoYo.enterprise.NGHSoD",
            "com.miHoYo.bh3.nearme.gamecenter",
            "com.miHoYo.Yuanshen",
            "com.tencent.tmgp.eyou.ygwu",
            "com.netease.yokaikoya.nearme.gamecenter",
            "com.tencent.YiRen",
            "com.netease.wptqz",
            "com.netease.jddsaef",
            "com.netease.jddsaef.nearme.gamecenter",
            "com.tencent.tmgp.jddsaef",
            "com.tencent.tmgp.yongyong.lztg",
            "com.tencent.tmgp.eyou.blqx",
            "com.pwrd.xxajh.laohu",
            "com.tencent.tmgp.xxajh",
            "com.tencent.tmgp.eyou.blqx",
            "com.netease.moba.nearme.gamecenter",
            "com.tencent.tmgp.kaopu.jzpaj",
            "com.tencent.tmgp.kaopu.jzpaj",
            "com.pwrd.xsmdl.laohu",
            "com.xsmdl.nearme.gamecenter",
            "com.tencent.tmgp.xsmdl",
            "comcom.youzu.bs",
            "com.youzu.bs.nearme.gamecenter",
            "com.yingxiong.dftk.nearme.gamecenter",
            "com.yunbu.rehtona.nearme.gamecenter",
            "com.denachina.g13002010.denacn",
            "com.denachina.g13002010.nearme.gamecenter",
            "com.volvapps.ef5.x.nearme.gamecenter",
            "com.tencent.tmgp.ef5",
            "com.tencent.tmgp.hqxy",
            "com.netease.x19",
            "com.tencent.tmgp.wdsj666",
            "com.netease.mc.nearme.gamecenter",
            "com.palmpi.hcollege.nearme.gamecenter",
            "com.palmpi.hcollege.feiyu",
            "com.tencent.tmgp.supercell.brawlstars",
            "com.ztgame.bob",
            "com.netease.hyxd.nearme.gamecenter",
            "com.netease.dwrg.nearme.gamecenter",
            "com.google.android.youtube",
            "com.tencent.qqsports",
            "com.netflix.mediaclient"
        ],
    "sw_whitelist": [
            "com.gbits.atm.nearme.gamecenter",
            "com.netease.my.nearme.gamecenter",
            "com.netease.dhxy.nearme.gamecenter",
            "com.supercell.boombeach",
            "com.kiloo.subwaysurf",
            "com.tencent.tmgp.RunGame",
            "com.happyelements.AndroidAnimal",
            "com.jiguang.dtszj.nearme.gamecenter",
            "com.netease.l10.nearme.gamecenter",
            "com.foyo.hlsg",
            "tw.sonet.es",
            "com.iaw.dentistcutekids",
            "com.firegamestudio.connectanimals",
            "com.outfit7.mytalkingtomfree",
            "com.supercell.clashofclans",
            "com.king.candycrushsodasaga",
            "com.king.candycrushsaga",
            "com.king.candycrushjellysaga",
            "com.supercell.hayday",
            "com.kits.projectp",
            "com.miniclip.eightballpool",
            "com.outfit7.mytalkingangelafree",
            "com.linecorp.LGGRTHN",
            "com.king.farmheroessaga",
            "com.nextwave.wcc2",
            "com.walnut.strive",
            "com.ea.gp.minions",
            "com.teenpatti.hd.gold",
            "net.peakgames.amy",
            "com.rovio.angrybirdsrio",
            "com.rovio.baba",
            "com.king.petrescuesaga",
            "com.vng.g6.a.zombie",
            "com.prettysimple.criminalcaseandroid",
            "com.fungames.sniper3d",
            "com.games24x7.ultimaterummy.playstore",
            "com.rovio.angrybirds",
            "com.games24x7.teenpatti.playstore",
            "com.nordcurrent.canteenhd",
            "com.junerking.archery",
            "com.midasplayer.apps.bubblewitchsaga2"
        ]
    },
    {
        "cvt": true
    },
    {
        "frtc": true
    }
]
